  0
SECTION
  2
HEADER
  9
$ACADVER
  1
AC1009
  9
$INSBASE
 10
0.0
 20
0.0
 30
0.0
  9
$EXTMIN
 10
0.0
 20
0.0
 30
0.0
  9
$EXTMAX
 10
0.0
 20
0.0
 30
0.0
  0
ENDSEC
  0
SECTION
  2
TABLES
  0
TABLE
  2
VPORT
 70
0
  0
ENDTAB
  0
TABLE
  2
LTYPE
 70
1
  0
LTYPE
  2
CONTINUOUS
 70
0
  3
Solid line
 72
65
 73
0
 40
0.0
  0
ENDTAB
  0
TABLE
  2
LAYER
 70
1
  0
LAYER
  2
0
 70
64
 62
7
  6
continuous
  0
ENDTAB
  0
TABLE
  2
STYLE
 70
1
  0
STYLE
  2
STANDARD
 70
0
 40
0
 41
1.0
 50
0.0
 71
0
 42
1
 3
ARIAL.TTF
 4

  0
ENDTAB
  0
TABLE
  2
VIEW
 70
0
  0
ENDTAB
  0
ENDSEC
  0
SECTION
  2
BLOCKS
  0
BLOCK
  8
0
  2
EXTRUDE
 70
0
 10
0.0
 20
0.0
 30
0.0
  3
EXTRUDE
  0
LINE
  8
0
 62
7
 10
38.472830151823956
 20
1.1072042004001044
 30
0.0
 11
82.10597487348004
 21
32.077329832999915
 31
0.0
  0
ARC
  8
0
 62
7
 10
85.0
 20
28.000000000000004
 30
0.0
 40
5.0
 50
-54.633461694260376
 51
125.36653830573961
  0
LINE
  8
0
 62
7
 10
44.260880404863876
 20
-7.047455465599728
 30
0.0
 11
87.89402512651998
 21
23.922670167000096
 31
0.0
  0
ARC
  8
0
 62
7
 10
35.0
 20
5.999999999999992
 30
0.0
 40
15.999999999999993
 50
-90.00000000000003
 51
-54.63346169426036
  0
LINE
  8
0
 62
7
 10
35.0
 20
-10.0
 30
0.0
 11
15.0
 21
-10.0
 31
0.0
  0
ARC
  8
0
 62
7
 10
15.0
 20
-5.0
 30
0.0
 40
5.0
 50
90.00000000000003
 51
-90.00000000000003
  0
LINE
  8
0
 62
7
 10
35.0
 20
0.0
 30
0.0
 11
15.0
 21
0.0
 31
0.0
  0
ARC
  8
0
 62
7
 10
35.0
 20
6.0
 30
0.0
 40
6.0
 50
-90.0
 51
-54.633461694260376
  0
CIRCLE
  8
0
 62
7
 10
25.0
 20
-5.0
 30
0.0
 40
3.0
  0
CIRCLE
  8
0
 62
7
 10
85.0
 20
28.000000000000004
 30
0.0
 40
2.5
  0
CIRCLE
  8
0
 62
7
 10
15.0
 20
-5.0
 30
0.0
 40
2.25
  0
ENDBLK
  0
ENDSEC
  0
SECTION
  2
ENTITIES
  0
INSERT
  2
EXTRUDE
  8
0
 62
7
 10
0.0
 20
0.0
 30
0.0
  0
ENDSEC
  0
EOF
